field,shortcode,display,search,group,type,default,lookup
City,city,City,Basic,Location,,,
County,county,County,Basic,Location,,,
SubdivisionName,subdivision,Subdivision,Basic,Location,,,
PostalCode,zip,Zip,Basic,Location,,,
polygon,polygon,Area,Basic,Location,select,,
ElementarySchool,elementary_school,Elementary School,Basic,Location,,,
MiddleOrJuniorSchool,middle_school,Middle School,Basic,Location,,,
HighSchool,high_school,High School,Basic,Location,,,
ListPrice,price,Price,Basic,Features,min-max,,
BedroomsTotal,beds,Beds,Basic,Features,min-max,,
LivingArea,living_area,Living Area,Basic,Features,min-max,,
AboveGradeFinishedArea,above_grade,Above Grade,Advanced,Features,min-max,,
StructureDesignType,prop_type,Property Type,Advanced,Features,select,,TYPE
UnitBuildingType,unit_type,Unit Type,Advanced,Features,select,,UNIT_BUILDING_TYPE
ArchitecturalStyle,style,Style,Advanced,Features,select,,STYLES
ExteriorFeatures,exterior,Exterior,Advanced,Features,select,,EXT_FEATURES
GarageYN,garage,Garage,Advanced,Features,yes-no,,
BasementYN,basement,Basement,Advanced,Features,yes-no,,
WaterfrontYN,water_front,Water Front,Advanced,Features,yes-no,,
WaterViewYN,water_view,Water View,Advanced,Features,yes-no,,
YearBuilt,year_built,Year Built,Advanced,Features,min-max,,
OwnershipInterest,ownership,Ownership,Advanced,Features,select,,BRIGHT_OWNERSHIP_RESI
SalesType,transaction_type,Transaction Type,Advanced,Features,select,,LISTING_TRANSACTION_TYPES
featured,featured,Featured,Advanced,Features,yes-no,,
StandardStatus,listing_status,Listing Status,Advanced,Features,select,Active,
CloseDate,close_date,Closing Date,,Features,min-max,,
list_type,list_type,Listing Type,,Features,select,sales,
format,format,Format,,Options,select,summary,
count,count,Count,,Options,,10,
pic_count,pic_count,Pic Count,,Options,,1,
show_title,show_title,Show Title,,Options,yes-no,true,
custom_title,custom_title,Custom Title,,Options,,,
show_map,show_map,Show Map,,Options,yes-no,false,
show_search,show_search,Show Search,,Options,yes-no,false,
show_listings,show_listings,Show Listings,,Options,yes-no,true,
show_more_link,show_more_link,Show More Link,,Options,yes-no,true,
